{
	"pageNum": 1,
	"pageSize": 2,
	"size": 2,
	"startRow": 1,
	"endRow": 2,
	"total": 9,
	"pages": 5,
	"list": [
		{
			"id": 1,
			"name": "PM - 项目经理"
		},
		{
			"id": 2,
			"name": "SE - 软件工程师"
		}
	],
	"prePage": 0,
	"nextPage": 2,
	"isFirstPage": true,
	"isLastPage": false,
	"hasPreviousPage": false,
	"hasNextPage": true,
	"navigatePages": 5,
	"navigatepageNums": [
		1,
		2,
		3,
		4,
		5
	],
	"navigateFirstPage": 1,
	"navigateLastPage": 5,
	"lastPage": 5,
	"firstPage": 1
}